48

C	-1.38675	-0.81085	0
C	1.38675	-0.81085	0
C	-1.38675	0.81085	0
C	1.38675	0.81085	0
H	-2.435017	-1.115003	0
H	2.435017	-1.115003	0
H	-2.435017	1.115003	0
H	2.435017	1.115003	0
C	-0.702014	-1.397436	1.222711
C	-0.702014	-1.397436	-1.222711
C	0.702014	-1.397436	1.222711
C	0.702014	-1.397436	-1.222711
C	-0.702014	1.397436	1.222711
C	-0.702014	1.397436	-1.222711
C	0.702014	1.397436	1.222711
C	0.702014	1.397436	-1.222711
C	-1.391703	-1.94915	2.297337
C	-1.391703	-1.94915	-2.297337
C	1.391703	-1.94915	2.297337
C	1.391703	-1.94915	-2.297337
C	-1.391703	1.94915	2.297337
C	-1.391703	1.94915	-2.297337
C	1.391703	1.94915	2.297337
C	1.391703	1.94915	-2.297337
C	-0.695491	-2.497749	3.375699
C	-0.695491	-2.497749	-3.375699
C	0.695491	-2.497749	3.375699
C	0.695491	-2.497749	-3.375699
C	-0.695491	2.497749	3.375699
C	-0.695491	2.497749	-3.375699
C	0.695491	2.497749	3.375699
C	0.695491	2.497749	-3.375699
H	-2.477173	-1.956287	2.293841
H	-2.477173	-1.956287	-2.293841
H	2.477173	-1.956287	2.293841
H	2.477173	-1.956287	-2.293841
H	-2.477173	1.956287	2.293841
H	-2.477173	1.956287	-2.293841
H	2.477173	1.956287	2.293841
H	2.477173	1.956287	-2.293841
H	-1.240296	-2.928548	4.208349
H	-1.240296	-2.928548	-4.208349
H	1.240296	-2.928548	4.208349
H	1.240296	-2.928548	-4.208349
H	-1.240296	2.928548	4.208349
H	-1.240296	2.928548	-4.208349
H	1.240296	2.928548	4.208349
H	1.240296	2.928548	-4.208349
