
   Content of the .dal input file
 ----------------------------------

**DALTON INPUT
.DIRECT
.RUN WAVE FUNCTION
**WAVE FUNCTIONS
.DFT
LDA
*ORBITAL INPUT
.PUNCHOUTORBITALS
**END OF DALTON INPUT


   Content of the .mol file
 ----------------------------

ATOMBASIS
Generated by Dalton Project

Atomtypes=1 Charge=0 Nosymmetry Angstrom
Charge=2.0 Atoms=1 Basis=STO-3G
He     0.000000     0.000000     0.000000

@    Abelian symmetry species          All |    1
@                                          |  A

 Sym       Kohn-Sham orbital energies

1 A      -0.48864135
