    ---------------------------------------------------
             PRINTING THE MOLECULE.INP FILE
    ---------------------------------------------------

    ATOMBASIS
    Generated by Dalton Project

    Atomtypes=2 Charge=0 Angstrom
    Charge=8.0 Atoms=1 Basis=pcseg-1 Aux=def2-universal-JFIT ADMM=admm-1
    O      0.112382    -0.000000     0.000000
    Charge=1.0 Atoms=2 Basis=pcseg-1 Aux=def2-universal-JFIT ADMM=admm-1
    H      0.704513     0.000000     0.762897
    H      0.704513     0.000000    -0.762897

    ---------------------------------------------------
             PRINTING THE LSDALTON.INP FILE
    ---------------------------------------------------

    **GENERAL
    .NOGCBASIS
    .TIME
    **WAVE FUNCTION
    .DFT
    PBE0
    *DENSOPT
    .VanLenthe
    **INTEGRALS
    .DENSFIT
    .ADMM
    **RESPONS
    *MOLGRA
    *END OF INPUT
