8

C	0.382148	0.428939	-0.505096
C	-0.382148	-0.428939	0.505096
H	1.454882	0.328735	-0.379496
H	-1.454882	-0.328735	0.379496
Br	-0.013339	-0.148854	-2.352029
Br	0.013339	0.148854	2.352029
Cl	-0.034457	2.162541	-0.329328
Cl	0.034457	-2.162541	0.329328
