34

C	1.408804	0	-0.70155
C	1.408804	0	0.70155
C	0	0	-1.295783
C	0	0	1.295783
H	0	0	-2.386183
H	0	0	2.386183
C	-0.704402	1.22006	-0.70155
C	-0.704402	1.22006	0.70155
C	-0.704402	-1.22006	-0.70155
C	-0.704402	-1.22006	0.70155
C	2.605904	0	-1.401668
C	2.605904	0	1.401668
C	-1.302952	2.256779	-1.401668
C	-1.302952	2.256779	1.401668
C	-1.302952	-2.256779	-1.401668
C	-1.302952	-2.256779	1.401668
C	3.813819	0	-0.695678
C	3.813819	0	0.695678
C	-1.90691	3.302864	-0.695678
C	-1.90691	3.302864	0.695678
C	-1.90691	-3.302864	-0.695678
C	-1.90691	-3.302864	0.695678
H	2.607059	0	-2.486767
H	2.607059	0	2.486767
H	-1.30353	2.25778	-2.486767
H	-1.30353	2.25778	2.486767
H	-1.30353	-2.25778	-2.486767
H	-1.30353	-2.25778	2.486767
H	4.753322	0	-1.236811
H	4.753322	0	1.236811
H	-2.376661	4.116497	-1.236811
H	-2.376661	4.116497	1.236811
H	-2.376661	-4.116497	-1.236811
H	-2.376661	-4.116497	1.236811
